<?xml version="1.0" encoding="UTF-8" standalone="no"?>
<!-- Generator: Adobe Illustrator 12.0.1, SVG Export Plug-In . SVG Version: 6.00 Build 51448)  -->
<svg
   xmlns:dc="http://purl.org/dc/elements/1.1/"
   xmlns:cc="http://web.resource.org/cc/"
   xmlns:rdf="http://www.w3.org/1999/02/22-rdf-syntax-ns#"
   xmlns:svg="http://www.w3.org/2000/svg"
   xmlns="http://www.w3.org/2000/svg"
   xmlns:sodipodi="http://sodipodi.sourceforge.net/DTD/sodipodi-0.dtd"
   xmlns:inkscape="http://www.inkscape.org/namespaces/inkscape"
   version="1.1"
   id="Layer_1"
   width="255.571"
   height="121.184"
   viewBox="0 0 255.571 121.184"
   style="overflow:visible;enable-background:new 0 0 255.571 121.184;"
   xml:space="preserve"
   sodipodi:version="0.32"
   inkscape:version="0.44.1"
   sodipodi:docname="Glutaminsäure.svg"
   sodipodi:docbase="E:\Eigene Dateien"><metadata
   id="metadata58"><rdf:RDF><cc:Work
       rdf:about=""><dc:format>image/svg+xml</dc:format><dc:type
         rdf:resource="http://purl.org/dc/dcmitype/StillImage" /></cc:Work></rdf:RDF></metadata><defs
   id="defs56" /><sodipodi:namedview
   inkscape:window-height="573"
   inkscape:window-width="925"
   inkscape:pageshadow="2"
   inkscape:pageopacity="0.0"
   guidetolerance="10.0"
   gridtolerance="10.0"
   objecttolerance="10.0"
   borderopacity="1.0"
   bordercolor="#666666"
   pagecolor="#ffffff"
   id="base"
   inkscape:zoom="3.1192237"
   inkscape:cx="127.7855"
   inkscape:cy="60.591999"
   inkscape:window-x="198"
   inkscape:window-y="198"
   inkscape:current-layer="Layer_1" />
<path
   d="M 127.76413,49.2794 L 127.76413,47.4269 L 160.44413,66.2369 L 160.44413,67.1869 L 159.63662,67.6619 L 127.76413,49.2794 z "
   id="polygon3" />
<path
   d="M 161.25162,67.6619 L 160.44413,67.1869 L 160.44413,66.2369 L 193.07663,47.4269 L 193.07663,49.2794 L 161.25162,67.6619 z "
   id="polygon5" />
<g
   id="g7"
   transform="matrix(0.95,0,0,0.95,6.389275,3.0296)">
	<path
   d="M 222.669,68.619 C 222.669,65.767 223.435,63.534 224.967,61.92 C 226.499,60.307 228.477,59.5 230.9,59.5 C 232.487,59.5 233.918,59.879 235.191,60.637 C 236.464,61.395 237.436,62.452 238.105,63.808 C 238.773,65.164 239.107,66.702 239.107,68.42 C 239.107,70.162 238.755,71.722 238.052,73.097 C 237.348,74.473 236.351,75.514 235.062,76.221 C 233.772,76.928 232.38,77.282 230.888,77.282 C 229.27,77.282 227.824,76.891 226.55,76.11 C 225.276,75.329 224.311,74.262 223.654,72.91 C 222.997,71.558 222.669,70.127 222.669,68.619 z M 225.013,68.648 C 225.013,70.718 225.57,72.349 226.684,73.541 C 227.798,74.733 229.196,75.328 230.876,75.328 C 232.588,75.328 233.997,74.726 235.104,73.523 C 236.211,72.32 236.763,70.613 236.763,68.402 C 236.763,67.004 236.527,65.783 236.054,64.74 C 235.58,63.697 234.888,62.888 233.978,62.314 C 233.068,61.74 232.045,61.453 230.912,61.453 C 229.302,61.453 227.916,62.006 226.755,63.111 C 225.594,64.216 225.013,66.063 225.013,68.648 z "
   id="path9" />
	<path
   d="M 242.118,76.984 L 242.118,59.797 L 244.399,59.797 L 244.399,66.86 L 253.29,66.86 L 253.29,59.797 L 255.571,59.797 L 255.571,76.985 L 253.29,76.985 L 253.29,68.891 L 244.399,68.891 L 244.399,76.985 L 242.118,76.985 L 242.118,76.984 z "
   id="path11" />
</g>
<path
   d="M 193.07663,49.2794 L 193.07663,47.4269 L 217.53913,61.5344 L 216.73163,62.9594 L 193.07663,49.2794 z "
   id="polygon13" />
<g
   id="g15"
   transform="matrix(0.95,0,0,0.95,6.389275,3.0296)">
	<path
   d="M 188.269,9.119 C 188.269,6.267 189.035,4.034 190.568,2.42 C 192.099,0.807 194.078,0 196.5,0 C 198.088,0 199.518,0.379 200.791,1.137 C 202.065,1.895 203.037,2.952 203.705,4.308 C 204.373,5.664 204.707,7.202 204.707,8.92 C 204.707,10.662 204.355,12.222 203.652,13.597 C 202.949,14.973 201.952,16.014 200.662,16.721 C 199.373,17.428 197.981,17.782 196.488,17.782 C 194.871,17.782 193.424,17.391 192.15,16.61 C 190.876,15.829 189.912,14.762 189.254,13.41 C 188.597,12.058 188.269,10.627 188.269,9.119 z M 190.612,9.148 C 190.612,11.218 191.169,12.849 192.284,14.041 C 193.397,15.232 194.796,15.828 196.475,15.828 C 198.188,15.828 199.596,15.226 200.704,14.023 C 201.809,12.82 202.362,11.113 202.362,8.902 C 202.362,7.504 202.126,6.283 201.653,5.24 C 201.18,4.197 200.488,3.388 199.577,2.814 C 198.667,2.24 197.645,1.953 196.511,1.953 C 194.902,1.953 193.515,2.506 192.355,3.611 C 191.192,4.717 190.612,6.563 190.612,9.148 z "
   id="path17" />
</g>
<path
   d="M 189.41912,22.0619 L 191.03317,22.0619 L 191.03317,49.9919 L 189.41912,49.9919 L 189.41912,22.0619 z "
   id="rect19" />
<path
   d="M 195.11912,22.0619 L 196.73317,22.0619 L 196.73317,49.9919 L 195.11912,49.9919 L 195.11912,22.0619 z "
   id="rect21" />
<g
   id="g23"
   transform="matrix(0.95,0,0,0.95,6.389275,3.0296)">
	<path
   d="M 155.341,116.684 L 155.341,99.496 L 157.681,99.496 L 166.685,112.984 L 166.685,99.496 L 168.873,99.496 L 168.873,116.684 L 166.533,116.684 L 157.529,103.195 L 157.529,116.684 L 155.341,116.684 z "
   id="path25" />
	<path
   d="M 172.782,116.684 L 172.782,99.496 L 175.063,99.496 L 175.063,106.559 L 183.954,106.559 L 183.954,99.496 L 186.235,99.496 L 186.235,116.684 L 183.954,116.684 L 183.954,108.59 L 175.063,108.59 L 175.063,116.684 L 172.782,116.684 z "
   id="path27" />
</g>
<g
   id="g29"
   transform="matrix(0.95,0,0,0.95,6.389275,3.0296)">
	<path
   d="M 196.017,119.668 L 196.017,121.184 L 187.486,121.184 C 187.474,120.803 187.537,120.437 187.672,120.084 C 187.891,119.504 188.24,118.934 188.721,118.372 C 189.202,117.81 189.891,117.161 190.791,116.424 C 192.186,115.272 193.133,114.361 193.631,113.691 C 194.129,113.021 194.377,112.387 194.377,111.788 C 194.377,111.162 194.152,110.634 193.702,110.204 C 193.252,109.774 192.666,109.559 191.941,109.559 C 191.175,109.559 190.564,109.788 190.105,110.247 C 189.646,110.705 189.414,111.341 189.408,112.152 L 187.783,111.98 C 187.894,110.765 188.314,109.838 189.043,109.201 C 189.772,108.564 190.75,108.246 191.977,108.246 C 193.216,108.246 194.198,108.589 194.919,109.275 C 195.641,109.961 196.002,110.81 196.002,111.825 C 196.002,112.342 195.897,112.848 195.686,113.346 C 195.474,113.844 195.123,114.368 194.633,114.92 C 194.141,115.471 193.328,116.228 192.192,117.189 C 191.242,117.986 190.631,118.527 190.36,118.81 C 190.089,119.095 189.864,119.38 189.686,119.667 L 196.017,119.667 L 196.017,119.668 z "
   id="path31" />
</g>
<path
   d="M 161.25162,95.4019 L 159.63662,95.4019 L 159.63662,67.6619 L 160.44413,67.1869 L 161.25162,67.6619 L 161.25162,95.4019 z "
   id="polygon33" />
<path
   d="M 127.76413,47.4269 L 127.76413,49.2794 L 95.131625,68.1369 L 95.131625,66.2369 L 127.76413,47.4269 z "
   id="polygon35" />
<path
   d="M 95.131625,66.2369 L 95.131625,68.1369 L 62.499125,49.2794 L 62.499125,47.4269 L 95.131625,66.2369 z "
   id="polygon37" />
<g
   id="g39"
   transform="matrix(0.95,0,0,0.95,6.389275,3.0296)">
	<path
   d="M 0,76.984 L 0,59.797 L 2.281,59.797 L 2.281,66.86 L 11.172,66.86 L 11.172,59.797 L 13.453,59.797 L 13.453,76.985 L 11.172,76.985 L 11.172,68.891 L 2.281,68.891 L 2.281,76.985 L 0,76.985 L 0,76.984 z "
   id="path41" />
	<path
   d="M 16.551,68.619 C 16.551,65.767 17.317,63.534 18.849,61.92 C 20.381,60.307 22.359,59.5 24.782,59.5 C 26.369,59.5 27.799,59.879 29.073,60.637 C 30.347,61.395 31.318,62.452 31.987,63.808 C 32.655,65.164 32.989,66.702 32.989,68.42 C 32.989,70.162 32.637,71.722 31.934,73.097 C 31.23,74.473 30.234,75.514 28.944,76.221 C 27.654,76.928 26.263,77.282 24.77,77.282 C 23.152,77.282 21.706,76.891 20.432,76.11 C 19.158,75.329 18.193,74.262 17.536,72.91 C 16.879,71.558 16.551,70.127 16.551,68.619 z M 18.895,68.648 C 18.895,70.718 19.452,72.349 20.566,73.541 C 21.68,74.733 23.078,75.328 24.758,75.328 C 26.47,75.328 27.879,74.726 28.986,73.523 C 30.092,72.32 30.645,70.613 30.645,68.402 C 30.645,67.004 30.409,65.783 29.936,64.74 C 29.463,63.697 28.771,62.888 27.86,62.314 C 26.949,61.74 25.927,61.453 24.794,61.453 C 23.184,61.453 21.798,62.006 20.637,63.111 C 19.476,64.216 18.895,66.063 18.895,68.648 z "
   id="path43" />
</g>
<path
   d="M 62.499125,47.4269 L 62.499125,49.2794 L 38.796625,62.9594 L 37.989125,61.5344 L 62.499125,47.4269 z "
   id="polygon45" />
<g
   id="g47"
   transform="matrix(0.95,0,0,0.95,6.389275,3.0296)">
	<path
   d="M 50.819,9.119 C 50.819,6.267 51.585,4.034 53.117,2.42 C 54.649,0.807 56.626,0 59.049,0 C 60.636,0 62.066,0.379 63.34,1.137 C 64.614,1.895 65.585,2.952 66.254,4.308 C 66.922,5.664 67.256,7.202 67.256,8.92 C 67.256,10.662 66.904,12.222 66.201,13.597 C 65.497,14.973 64.501,16.014 63.211,16.721 C 61.921,17.428 60.53,17.782 59.037,17.782 C 57.419,17.782 55.973,17.391 54.699,16.61 C 53.425,15.829 52.46,14.762 51.803,13.41 C 51.147,12.058 50.819,10.627 50.819,9.119 z M 53.163,9.148 C 53.163,11.218 53.72,12.849 54.834,14.041 C 55.948,15.233 57.346,15.828 59.026,15.828 C 60.738,15.828 62.147,15.226 63.254,14.023 C 64.36,12.82 64.913,11.113 64.913,8.902 C 64.913,7.504 64.677,6.283 64.204,5.24 C 63.731,4.197 63.039,3.388 62.128,2.814 C 61.217,2.24 60.195,1.953 59.062,1.953 C 57.452,1.953 56.066,2.506 54.905,3.611 C 53.744,4.716 53.163,6.563 53.163,9.148 z "
   id="path49" />
</g>
<path
   d="M 58.841626,22.0619 L 60.456626,22.0619 L 60.456626,49.9919 L 58.841626,49.9919 L 58.841626,22.0619 z "
   id="rect51" />
<path
   d="M 64.494123,22.0619 L 66.109123,22.0619 L 66.109123,49.9919 L 64.494123,49.9919 L 64.494123,22.0619 z "
   id="rect53" />
</svg>